use raspadinhabd;
select 
  substring_index( substring_index(dezenas, '|', 1), '|', -1) as a ,
  substring_index( substring_index(dezenas, '|', 2), '|', -1) as b,
  substring_index( substring_index(dezenas, '|', 3), '|', -1) as c,
  substring_index( substring_index(dezenas, '|', 4), '|', -1) as d,
  substring_index( substring_index(dezenas, '|', 5), '|', -1) as e,
  substring_index( substring_index(dezenas, '|', 6), '|', -1) as f,
  substring_index( substring_index(dezenas, '|', 7), '|', -1) as g,
  substring_index( substring_index(dezenas, '|', 8), '|', -1) as h,
  substring_index( substring_index(dezenas, '|', 9), '|', -1) as i,
  substring_index( substring_index(dezenas, '|', 10), '|', -1) as j,
  substring_index( substring_index(dezenas, '|', 1), '|', -1) as a ,
  substring_index( substring_index(dezenas, '|', 2), '|', -1) as b,
  substring_index( substring_index(dezenas, '|', 3), '|', -1) as c,
  substring_index( substring_index(dezenas, '|', 4), '|', -1) as d,
  substring_index( substring_index(dezenas, '|', 5), '|', -1) as e,
  substring_index( substring_index(dezenas, '|', 6), '|', -1) as f,
  substring_index( substring_index(dezenas, '|', 7), '|', -1) as g,
  substring_index( substring_index(dezenas, '|', 8), '|', -1) as h,
  substring_index( substring_index(dezenas, '|', 9), '|', -1) as i,
  substring_index( substring_index(dezenas, '|', 10), '|', -1) as j,
  substring_index( substring_index(dezenas, '|', 1), '|', -1) as a ,
  substring_index( substring_index(dezenas, '|', 2), '|', -1) as b,
  substring_index( substring_index(dezenas, '|', 3), '|', -1) as c,
  substring_index( substring_index(dezenas, '|', 4), '|', -1) as d,
  substring_index( substring_index(dezenas, '|', 5), '|', -1) as e,
  substring_index( substring_index(dezenas, '|', 6), '|', -1) as f,
  substring_index( substring_index(dezenas, '|', 7), '|', -1) as g,
  substring_index( substring_index(dezenas, '|', 8), '|', -1) as h,
  substring_index( substring_index(dezenas, '|', 9), '|', -1) as i,
  substring_index( substring_index(dezenas, '|', 10), '|', -1) as j,
  identificacao
from bilhete where concurso_id = 2019013 order by numero;
