id,descricao,name
27,"Cadastro de grupos de operações financeiras",PERM_CADASTRO_GRUPO_LANCAMENTO
28,"Cadastro de lançamentos financeiros",PERM_CADASTRO_LANCAMENTO
29,"Relatório de lançamentos financeiros",PERM_REL_LANCAMENTO